
  ______ __  __  _____    _____            _             _
 |  ____|  \/  |/ ____|  / ____|          | |           | |
 | |__  | \  / | (___   | |     ___  _ __ | |_ _ __ ___ | |
 |  __| | |\/| |\___ \  | |    / _ \| '_ \| __| '__/ _ \| |
 | |____| |  | |____) | | |___| (_) | | | | |_| | | (_) | |
 |______|_|  |_|_____/   \_____\___/|_| |_|\__|_|  \___/|_|
                                                           
                                                           